{
	"name": "rossman_sales_project_135",
	"projectDescription": "Project to understand the predicting the sales for rossmal stores",
	"owner": {
		"uid": "naveensinha"
	},
	"developers": ["naveensinha"],
	"environments": ["DEV"],
	"persistent_volume_size": 6,
	"components": [
		{
			"type": "job",
			"flavor": "python",
      "description": "Sample description",
			"name": "data_fetch"
		},
		{
			"type": "job",
			"flavor": "python",
      "description": "Sample description",
			"name": "xgboost_data_prep"
		},
		{
			"type": "job",
			"flavor": "python",
      "description": "Sample description",
			"name": "xgboost_train"
		},
		{
			"type": "service",
			"flavor": "python",
      "description": "Sample description",
			"name": "xgboost_infer"
		},
		{
			"type": "job",
			"flavor": "python",
      "description": "Sample description",
			"name": "dnn_data_prep"
		},
		{
			"type": "job",
			"flavor": "python",
      "description": "Sample description",
			"name": "dnn_train"
		},
		{
			"type": "service",
			"flavor": "python",
      "description": "Sample description",
			"name": "dnn_infer"
		}
	],
	"pipelines": [
  {
		"name": "xgboost_training_pipeline",
		"components": ["data_fetch", "xgboost_data_prep", "xgboost_train"],
		"flavor": "kubeflow",
		"declarative_json": "xgboost_training_pipeline.json"
	},
  {
		"name": "dnn_training_pipeline",
		"components": ["data_fetch", "dnn_data_prep", "dnn_train"],
		"flavor": "kubeflow",
		"declarative_json": "dnn_training_pipeline.json"
	}
  ]
}
