{
	"name": "rossman_sales_project_135",
	"target_environment_type": "kubernetes",
	"target_environment": "DEV",
	"pipelines": {
		"xgboost_training_pipeline": {
			"components": {
				"data_fetch": {
					"mount_path": "/data",
					"custom_docker_image": "dockerregistry.xpresso.ai/library/xpresso_version:1.2.2"
				},
				"xgboost_data_prep": {
					"mount_path": "/data",
					"build_version": 1
				},
				"xgboost_train": {
					"mount_path": "/data",
					"build_version": 1
				}
			}
		},
		"dnn_training_pipeline": {
			"components": {
				"data_fetch": {
					"mount_path": "/data",
					"custom_docker_image": "dockerregistry.xpresso.ai/library/xpresso_version:1.2.2"
				},
				"dnn_data_prep": {
					"mount_path": "/data",
					"build_version": 1
				},
				"dnn_train": {
					"mount_path": "/data",
					"build_version": 1
				}
			}
		}
	}
}
